Project 1
…
(sta = data %>% count(state, sort = TRUE) %>% mutate(propotion = round(n/sum(n),2)))

## # A tibble: 51 x 3
##    state     n propotion
##    <chr> <int>     <dbl>
##  1 CA      332      0.09
##  2 TX      270      0.08
##  3 IL      168      0.05
##  4 FL      165      0.05
##  5 PA      153      0.04
##  6 NY      147      0.04
##  7 NC      142      0.04
##  8 OH      135      0.04
##  9 TN      121      0.03
## 10 MI      116      0.03
## #  with 41 more rows
…
